a 33 15
a 33 16
a 33 17
a 34 15
a 35 16
a 12 19
a 12 22
a 13 18
a 14 18
a 14 22
a 15 18
a 15 19
a 15 20
a 15 21
a 30 28
a 31 28
a 32 28
a 32 29
a 31 30
a 23 23
a 23 24
a 23 25
a 23 26
a 24 22
a 24 26
a 25 26
a 26 22
a 26 25
p
